filename,offset,wavemd5,start,duration,feat_1,feat_2,feat_3,feat_4,feat_5,feat_6,feat_7,feat_8,feat_9,feat_10,feat_11,feat_12,feat_13,feat_14,feat_15,feat_16,feat_17,feat_18,feat_19,feat_20,feat_21,feat_22,feat_23,feat_24,feat_25,feat_26,feat_27,feat_28,feat_29,feat_30
C:\BVC\DownloadedVoices\00031dde-3ed3-e611-80c3-0003ff433871.wav,0,98185e4d4d7b76b8b7aafe10d7732bff,0,16860.125,18.5159024852297,0.0516598879242591,0.0936050142069428,0.13030543672554,356.684127972167,-4.46786661064328,0.211726836930713,0,12561.1142011161,-1.20371240619708,2.11785453507725,2.11785453507725,-2.27863013503301,2.57430694208846,-4.73184273107211,1115.45879906982,0.109896830095029,1,1.60923097476515,1.60923097476515,4.15413420343427,4.15413420343427,4.15413420343427,1.2754593485417,-0.270570336690544,-3.54579287885697,-0.0312810016639305,-0.0312810016639305,0.356533793876168,0.356533793876168
C:\BVC\DownloadedVoices\0004d0b001461d609f3d990bec887c72.wav,0,0004d0b001461d609f3d990bec887c72,1250,25720,62.2401136900714,0.108267040657113,0.518592235849135,0.490425916976754,795.986950244767,-6.30627528680822,0.16976040969125,0.271184583666856,24028.5368290315,-2.37834281752813,2.31562903958876,2.31562903958876,-3.24084759254057,3.72340879706876,-5.2657013532701,1837.72296554171,0.244798481727759,0.107651425796194,1.82864264068765,1.82864264068765,3.44782130677653,3.44782130677653,3.44782130677653,1.42498303599911,0.875249989608104,-1.19022766178305,-0.0147060804768581,-0.0147060804768581,0.436314592623575,0.436314592623575
C:\BVC\DownloadedVoices\000b3328-c7b0-4cd5-9a9c-0cc39771b2c7.wav,16,620d42b8941ecba542374ecf73aa99b4,6491,16560,7.65495156475576,0.0322818481357294,0.025191882549998,0.0376530644753123,26.635668302666,-4.33073334028631,0.199065052004462,0,677.474146610066,-1.77677877588263,1.87375044431109,1.87375044431109,-2.34534631828322,3.64336197418856,-3.9817165569636,1097.0916695889,0.11046138690984,1,1.21392058376745,1.21392058376745,5.02995872943278,5.02995872943278,5.02995872943278,1.01471758762361,1.38812776627658,-0.476366481837616,-0.0117815828516237,-0.0117815828516237,0.446129481109399,0.446129481109399
C:\BVC\DownloadedVoices\000bf272-d07c-e711-80c2-000d3a22d5ba.wav,0,8a71b2f22f3b4d17945b748c31817159,0,10000,30.4252817946056,0.0834340775597067,0.292855570309642,0.705626899399936,582.898848413692,-5.78074351566356,0.138935736591441,0,5257.56229303505,-2.66678162835326,1.97921395726065,1.97921395726065,-3.2134032045946,7.0777892194948,-4.6460454153448,1565.09149799702,0.215483049156582,0.338173184401223,1.75492818703261,1.75492818703261,3.93685404078652,3.93685404078652,3.93685404078652,1.0211942967468,0.0186738656587807,-1.69983607937198,-0.0346006578158274,-0.0346006578158274,0.421654777798488,0.421654777798488
C:\BVC\DownloadedVoices\000fb305-f29c-4bd1-a660-a648ed72eb11.wav,0,0ee37dd460221b8642d4bdb8689ea586,625,15360.125,33.2311077344863,0.0952881294558298,0.450195157389756,0.577628700976406,11.4452019613628,-5.19849703126578,0.143141572546243,0.287808859330432,23984.6849158735,-2.0687986939411,2.20538355646044,2.20538355646044,-3.25286744227151,3.8085913092761,-4.56584421896201,1599.86440442082,0.222881080601139,0.186260788505368,1.67705216521009,1.67705216521009,3.93570449364901,3.93570449364901,3.93570449364901,1.5387340851573,0.323204212575628,-0.309584079974748,-0.0089545081970551,-0.0089545081970551,0.496904371013463,0.496904371013463
C:\BVC\DownloadedVoices\001115c9-2132-42d8-ae60-2eaae0a4c245.wav,0,77aad68e4a87571c9e7d771a0a463e8e,4175,18625.875,65.6866298277484,0.10407429683577,0.685509738188737,0.646920791288895,702.812799781536,-5.83797727202836,0.18487171697669,0.248440294816795,68897.6838397228,-2.6932751283639,2.01825925321449,2.01825925321449,-3.24870869675361,3.20909873099009,-5.22166656859254,1797.18085672865,0.247721158922523,0.123563584457497,1.72939297098253,1.72939297098253,3.68054682917794,3.68054682917794,3.68054682917794,1.23896298897782,-0.29997870285355,-0.00283995777152459,0.0160920397201825,0.0160920397201825,0.581142883409592,0.581142883409592
C:\BVC\DownloadedVoices\0017bf00-f126-4da7-a8aa-87a2855219d2.wav,0,4454f91dce581b1d7e82a276fdc4d929,2600,33536,45.0228965475237,0.0848018319121264,0.422949964762564,0.275196185360042,720.256980054637,-5.97126183966393,0.182776406228928,0.248437305991126,25307.0132643971,-2.76548226818434,1.95937723816411,1.95937723816411,-3.20461719334849,3.98773436462553,-5.05390853151092,2089.18304797145,0.220765932013432,0.0280350193331168,1.50265089931775,1.50265089931775,4.11214298341996,4.11214298341996,4.11214298341996,1.42824535191396,-0.57780676869524,1.89131626029541,0.0214583207945342,0.0214583207945342,0.595246800466611,0.595246800466611
C:\BVC\DownloadedVoices\00198689-ca5f-4957-8a0c-0177ce337fe4.wav,0,2c8b825f5eb37088329fdf7ed96e3946,2550,21000,35.2417185817136,0.0464865154865327,0.439134077544171,0.563363674222483,425.163117120958,-5.96327846350005,0.143005309293625,0,32190.9650094862,-2.15399320908833,1.71814604579645,1.71814604579645,-3.23110776109013,1.45020110280907,-5.57161584072881,1915.73311545728,0.155531128966461,0.159510934007249,1.37077897327431,1.37077897327431,4.99457092301627,4.99457092301627,4.99457092301627,1.24800620877179,0.233254147239418,-1.5150088311981,-0.00572343136537807,-0.00572343136537807,0.468343415187737,0.468343415187737
C:\BVC\DownloadedVoices\001a1f0a-4970-41b6-b882-85d6c9f19fdf.wav,0,196899643263f0c510b915ed71fef0bd,20075,30140.125,32.0319577531641,0.0909416770512439,0.46235839428718,0.67801093645542,10.305384755867,-4.82028156560501,0.127213083866226,0.248484915472734,64322.2205940803,-3.06811494381037,2.12594686832582,2.12594686832582,-3.25708738897626,5.26019834489418,-4.3628461672868,1721.9050386731,0.250839847141472,0.0995241949780354,1.54440157974866,1.54440157974866,3.63262472870208,3.63262472870208,3.63262472870208,1.4995400841533,-0.600972148510108,0.484111504104943,0.00307272363474251,0.00307272363474251,0.507528708901682,0.507528708901682
C:\BVC\DownloadedVoices\001a63ea-2771-e711-80c2-000d3a22d24d.wav,15000,6d47ed88840af75dee10195a6e79cbec,15000,10000,69.6078047121774,0.0961658394108557,0.649469964002277,0.576072043774895,665.416711449394,-5.9652016846286,0.180984784510249,0.263564435069308,29578.7046850489,-2.94709378633607,1.89232128146896,1.89232128146896,-3.2414474531246,3.01709069273538,-5.39594080667253,1946.05784127487,0.209804856230926,0.0745444354688099,1.48063357377464,1.48063357377464,4.22634115249411,4.22634115249411,4.22634115249411,1.12619417517575,0.158843707730245,0.724518056613873,0.0152240205523507,0.0152240205523507,0.555715824488835,0.555715824488835
C:\BVC\DownloadedVoices\001d2a51-fcd5-4be9-8c3c-01858b63d436.wav,0,0d082793cbef7727804d0117761db5a9,1175,16611.375,22.1429322284741,0.0268042661405797,0.178508834447584,0.382335675989471,274.881416037244,-5.36597601488899,0.172363507539261,0,33005.3645788337,-2.12133163818145,2.10337178154255,2.10337178154255,-3.05182739727514,3.1939208091687,-4.78846170462421,891.735133423388,0.134013846511663,0.275352549755658,1.54067725448676,1.54067725448676,4.36457893267426,4.36457893267426,4.36457893267426,1.51766811859265,0.0907994793717831,1.77975654011136,0.0257596940969633,0.0257596940969633,0.603583133797374,0.603583133797374
C:\BVC\DownloadedVoices\0020807f-f4a3-49ed-bb35-945b28e0779d.wav,2586,2a3a436dc55774cd50ece71ce3220e5a,6836,14270,9.90351953533525,0,0.357444546571529,0.437860485922034,73.10757639104,-4.369447852467,0.146818816495377,0,3196.145471269,-1.54791862699173,1.27328629793472,1.27328629793472,-2.66620891175009,8.18215928923295,-3.27448306868755,1045.57667542832,0.130686054305579,0.323279658900323,1.18182329913693,1.18182329913693,6.71577015899303,6.71577015899303,6.71577015899303,1.12678217570972,0.286895199880471,-0.519600603417193,-0.00545986481394145,-0.00545986481394145,0.470074589420026,0.470074589420026
C:\BVC\DownloadedVoices\00210623-40d3-e611-80c3-0003ff433871.wav,0,7ec89e1c7da0e55d30874f0ca5ebcddf,25,13690.125,6.81224573109793,0,0.00262056114996313,0.00348064963541479,249.817972193294,-5.42934562881276,0.181357561049494,0,2269.62389591871,-0.785560264991735,1.9329177966682,1.9329177966682,-2.03816175637211,3.62242669121386,-4.19527984660308,1150.26140652053,0.0633294509333971,1,1.71742559480303,1.71742559480303,3.91095588004523,3.91095588004523,3.91095588004523,1.16131212191797,-0.138264535959742,-1.76839779565308,-0.00866578108367404,-0.00866578108367404,0.447049440438573,0.447049440438573
C:\BVC\DownloadedVoices\002397ad-10c7-403e-88cd-3163dd892fea.wav,0,23d90484b72d07450855f529843ff256,1550,15257.375,22.971372693842,0.0257368285403226,0.0409390271201493,0.0978955062606075,625.231953688963,-5.92250374885464,0.161971111825681,0,18587.3621522636,-1.99896605491188,2.4834804823474,2.4834804823474,-2.43712826884875,1.65112910539731,-5.54484552495202,1072.37106921636,0.14339283150874,0.360100934515274,1.83695590803554,1.83695590803554,3.48642409678057,3.48642409678057,3.48642409678057,0.941095262229236,-0.38354031298413,-0.282272071161022,0.0100705374212613,0.0100705374212613,0.524885498016078,0.524885498016078
C:\BVC\DownloadedVoices\0033b4cc-3e08-4e50-a474-41ba0ef91c22.wav,936,f910db55ab23a61c1b8bcadc4e697a7d,3961,13070,15.1960090692884,0.0195052986908444,0.0319698556816964,0.052027375704968,467.27648368656,-4.67936252290989,0.143168295319952,0,15441.3682908552,-2.092003552472,2.34110855425916,2.34110855425916,-2.75626474480944,2.46439350826227,-5.10373737750455,989.18793228595,0.145537469474468,0.197489151713565,1.91666358476675,1.91666358476675,3.44976554664297,3.44976554664297,3.44976554664297,1.28289897567175,0.174215786417203,-0.74464451688651,0.00639589149168978,0.00639589149168978,0.486345926198156,0.486345926198156
C:\BVC\DownloadedVoices\0035d8cc-91b1-44fb-bd4d-18530fbc67e5.wav,0,d6962004d4e0941a10b0c40754a51797,5400,18690.125,71.4566873511638,0.0840218422659672,0.644896249742052,0.773705200987353,739.478988546559,-4.86798024992245,0.137123028217626,0.264235120977452,31975.1085399955,-2.9389393370952,2.4425408501582,2.4425408501582,-3.25159064608734,3.94374732929127,-5.27798348938401,1838.91663354519,0.261656550104537,0.085269430964924,2.00794748174545,2.00794748174545,3.18606913351433,3.18606913351433,3.18606913351433,0.936956865479954,0.557102138611454,0.733944855233512,0.023954429340418,0.023954429340418,0.589982209889993,0.589982209889993
C:\BVC\DownloadedVoices\003a0764-d506-4435-a443-6aa96876b1c6.wav,0,8dd8fc2ed0eab9cee4dde6c1d2de52fe,5600,19968.25,41.0621971116618,0.0322815793146252,0.0971189379154497,0.133412734217021,406.731895932677,-5.8692969130072,0.18645566654405,0,29011.6547395053,-2.15963488773653,2.66823669395886,2.66823669395886,-3.22183947606428,1.23794625620517,-5.56553841680089,1465.21688538268,0.147240212197349,0.261925713838606,2.13000570683248,2.13000570683248,3.07885669476257,3.07885669476257,3.07885669476257,1.40900650706347,0.0313325290126158,-0.40924303766525,0.0067895304874074,0.0067895304874074,0.508590563411451,0.508590563411451
C:\BVC\DownloadedVoices\003ab513-aab7-4366-ba75-96c66a2bc714.wav,0,b8d08961001549b019f7bb2ee53a09d4,2350,13350.125,5.1397036043298,0.0174424428293855,0.0140467114124336,0.0383901309379309,16.0860321022429,-4.85203026391958,0.109028027589347,0,278.44784793808,-1.4232563792947,1.7459191357304,1.7459191357304,-3.06777256169224,3.42342781476386,-4.38826900213484,958.993038074462,0.113631417863221,0.370051775669576,1.28480007630177,1.28480007630177,5.32907037787734,5.32907037787734,5.32907037787734,0.895007464870586,1.10547979521697,-0.598765420921667,0.000716952795797172,0.000716952795797172,0.477277878005777,0.477277878005777
C:\BVC\DownloadedVoices\003c3f0a-df93-41ea-9c6d-833ef1dda091.wav,0,54a4e3d9dd9039cc651841c3abcfdac0,2075,16425,9.59826390979341,0.0232016164518963,0.0262528659029372,0.0886518990254485,377.239492822755,-3.58616218402666,0.14908651654009,0,7839.53661663581,-1.17013332295143,1.54934404685161,1.54934404685161,-2.04221017995765,2.92775567182213,-4.8176406391218,1146.79186094004,0.0989111527106896,1,1.27394776487996,1.27394776487996,5.47603439051031,5.47603439051031,5.47603439051031,1.34566444635333,0.294305787613595,-1.30412659958909,-0.0162197726723342,-0.0162197726723342,0.360917573591028,0.360917573591028
C:\BVC\DownloadedVoices\003f32f8-0ee7-4450-b9fc-7f0211496a61.wav,0,7cdae0f33067bef8edd3afd726df6c5b,16775,26810.125,6.54723089546977,0,0.00055312609094717,0.00113828447621712,552.729950890146,-5.99645208849197,0.121951506066491,0,17455.3970380321,-1.79154943458813,1.3075498514051,1.3075498514051,-2.14570759146852,3.6372627906236,-4.34725469509237,1127.85947284934,0.0680246145908164,1,1.53155434729628,1.53155434729628,4.85343275511113,4.85343275511113,4.85343275511113,1.21068013048026,-0.00732326467125288,-2.06442004043133,-0.00743176328124408,-0.00743176328124408,0.492982754042779,0.492982754042779
C:\BVC\DownloadedVoices\0042159c-d07c-e711-80c2-000d3a22d5ba.wav,0,ec0d32a5d50692d8cf78579406b640b1,0,10000,67.95950639318,0.116582963541713,0.595806984843034,0.647081282912155,1151.55273370013,-6.0489084059369,0.130587427359966,0.255779520437046,24501.3342079004,-3.05188518259089,2.19710025763238,2.19710025763238,-3.25280047905549,3.3788097853459,-5.35939121033439,1697.32965278522,0.262145662773701,0.153515380314987,1.77390712315242,1.77390712315242,3.64739954118959,3.64739954118959,3.64739954118959,1.15548519089482,0.392316303967056,-0.823261473380513,-0.00102473791172789,-0.00102473791172789,0.518491353569375,0.518491353569375
C:\BVC\DownloadedVoices\0042723bb2fe7760dfe9d87867fd41c3.wav,0,0042723bb2fe7760dfe9d87867fd41c3,2700,18820,52.4035076219322,0.135290961551809,0.364718993241608,0.772102460847893,845.393925481926,-5.25565443579482,0.241847204826532,0.255516480221133,19801.8760645916,-2.17236351278173,2.15908409018695,2.15908409018695,-3.25163963952851,4.83018512900402,-4.92897982942687,1815.56324719255,0.244531822406149,0.0582667307246516,1.70216012087928,1.70216012087928,3.71997936167986,3.71997936167986,3.71997936167986,0.976248145058232,0.8721690196237,-1.66031907864418,-0.00922450830245528,-0.00922450830245528,0.412069815633201,0.412069815633201
C:\BVC\DownloadedVoices\0044faf8-510a-47e8-90b4-ed3779201601.wav,0,f3be914a98f7885a32de9ee6351aa321,7125,21000,78.4918783443481,0.0901808470620708,0.607206230864686,0.746908288252535,919.940648829129,-4.0033221198307,0.0970542209470027,0.296764529678561,254035.099738525,-2.91621729101899,2.31255417483158,2.31255417483158,-3.25062792241786,3.618575293095,-5.23366887518217,1872.41142157133,0.273095651903874,0.0510330930711278,1.86415486908465,1.86415486908465,3.35308188131255,3.35308188131255,3.35308188131255,1.18226991468685,0.400121395323034,0.929757718499687,0.0314856007812634,0.0314856007812634,0.585862974917307,0.585862974917307
C:\BVC\DownloadedVoices\004500dda4db041fd00a3bcbb88f20a5.wav,0,004500dda4db041fd00a3bcbb88f20a5,9625,20723.75,45.4704842189794,0.095352865119252,0.481417165976105,0.689109669175863,642.797337310821,-6.04025471115135,0.184072995366627,0,23862.4987299712,-2.92772874822823,2.31781533807405,2.31781533807405,-3.23307416640649,4.05780075128395,-5.14382011242274,1937.71296859088,0.250291713466295,0.084234426386692,1.91648410668449,1.91648410668449,3.45078135007961,3.45078135007961,3.45078135007961,0.871680275825617,0.0631973311833311,-1.4349078725512,-0.00182831633577198,-0.00182831633577198,0.463623486889896,0.463623486889896
C:\BVC\DownloadedVoices\00480d0a-c266-4d4d-a57b-bb6df207c94a.wav,0,87085a0e50afaf94d73117cb1e5c7725,4125,14150.125,54.7143633799114,0.0861192492611582,0.547701593660375,0.723563370194893,711.241729115826,-6.16790597277202,0.195772467324826,0.256236386273329,65536.9662033725,-2.44043690431597,2.30004303964291,2.30004303964291,-3.23665647185902,3.22305410468429,-5.44511809272458,2018.95348648819,0.234320468116508,0.0765813764025658,1.96529260459244,1.96529260459244,3.47937670415303,3.47937670415303,3.47937670415303,0.889099207868748,0.450542192337491,-0.762334343957324,-0.00487546699368306,-0.00487546699368306,0.50174215877095,0.50174215877095
C:\BVC\DownloadedVoices\0048820c-504f-41db-a607-9d276554910b.wav,0,e45cb1529369a8bda8f5321199d2628d,3550,17000,21.5368292180336,0.071990985627025,0.65878322286829,0.71610527094239,20.3843780048206,-5.24174701505958,0.170810810943353,0,15509.2055236024,-2.00265051816107,1.92426666639168,1.92426666639168,-3.23635027668391,4.65293553824541,-4.3204646073587,1779.31492963466,0.207819829987694,0.215858106701422,1.70577788418317,1.70577788418317,4.14396412416989,4.14396412416989,4.14396412416989,1.49351758199842,0.224537668163173,-0.649144584443887,-0.00949682933435857,-0.00949682933435857,0.495362594762229,0.495362594762229
